{
  "projects": [
    {
      "id": "1",
      "name": "Samsung Galaxy S8 Kampagne"
    },
    {
      "id": "2",
      "name": "Raumgleiter iRoom"
    },
     {
      "id": "3",
      "name": "Skoda Superb Kampagne"
    }
  ]
}